Hipps9.20.2019
…
av

## 
##  Kruskal-Wallis rank sum test
## 
## data:  shannon by BSpecies
## Kruskal-Wallis chi-squared = 4.7124, df = 6, p-value = 0.5812

posthoc

## # A tibble: 21 x 8
##    .y.     group1 group2     p p.adj p.format p.signif method  
##    <chr>   <chr>  <chr>  <dbl> <dbl> <chr>    <chr>    <chr>   
##  1 shannon BAEA   BWHA   1      1    1.00     ns       Wilcoxon
##  2 shannon BAEA   COHA   1      1    1.00     ns       Wilcoxon
##  3 shannon BAEA   NOGO   0.540  0.95 0.54     ns       Wilcoxon
##  4 shannon BAEA   RSHA   1      1    1.00     ns       Wilcoxon
##  5 shannon BAEA   RTHA   0.475  0.95 0.47     ns       Wilcoxon
##  6 shannon BAEA   SSHA   0.333  0.95 0.33     ns       Wilcoxon
##  7 shannon BWHA   COHA   0.417  0.95 0.42     ns       Wilcoxon
##  8 shannon BWHA   NOGO   0.846  1    0.85     ns       Wilcoxon
##  9 shannon BWHA   RSHA   1      1    1.00     ns       Wilcoxon
## 10 shannon BWHA   RTHA   0.901  1    0.90     ns       Wilcoxon
## # ... with 11 more rows
…
av

## 
##  Kruskal-Wallis rank sum test
## 
## data:  faith_pd by BSpecies
## Kruskal-Wallis chi-squared = 3.4831, df = 6, p-value = 0.7462

posthoc

## # A tibble: 21 x 8
##    .y.      group1 group2     p p.adj p.format p.signif method  
##    <chr>    <chr>  <chr>  <dbl> <dbl> <chr>    <chr>    <chr>   
##  1 faith_pd BAEA   BWHA   0.242     1 0.24     ns       Wilcoxon
##  2 faith_pd BAEA   COHA   0.190     1 0.19     ns       Wilcoxon
##  3 faith_pd BAEA   NOGO   0.540     1 0.54     ns       Wilcoxon
##  4 faith_pd BAEA   RSHA   1         1 1.00     ns       Wilcoxon
##  5 faith_pd BAEA   RTHA   0.610     1 0.61     ns       Wilcoxon
##  6 faith_pd BAEA   SSHA   0.333     1 0.33     ns       Wilcoxon
##  7 faith_pd BWHA   COHA   1         1 1.00     ns       Wilcoxon
##  8 faith_pd BWHA   NOGO   1         1 1.00     ns       Wilcoxon
##  9 faith_pd BWHA   RSHA   1         1 1.00     ns       Wilcoxon
## 10 faith_pd BWHA   RTHA   0.483     1 0.48     ns       Wilcoxon
## # ... with 11 more rows
…
## $Letters
## BAEA BWHA COHA NOGO RSHA RTHA SSHA 
##  "a"  "a"  "a"  "a"  "a"  "a"  "a" 
## 
## $LetterMatrix
##         a
## BAEA TRUE
## BWHA TRUE
## COHA TRUE
## NOGO TRUE
## RSHA TRUE
## RTHA TRUE
## SSHA TRUE
## 
## # A tibble: 21 x 9
##    Phylum       .y.     group1 group2     p p.adj p.format p.signif method 
##    <fct>        <chr>   <chr>  <chr>  <dbl> <dbl> <chr>    <chr>    <chr>  
##  1 Actinobacte~ Abunda~ BAEA   BWHA   0.534     1 0.534    ns       Wilcox~
##  2 Actinobacte~ Abunda~ BAEA   COHA   0.368     1 0.368    ns       Wilcox~
##  3 Actinobacte~ Abunda~ BAEA   NOGO   0.540     1 0.540    ns       Wilcox~
##  4 Actinobacte~ Abunda~ BAEA   RSHA   1         1 1.000    ns       Wilcox~
##  5 Actinobacte~ Abunda~ BAEA   RTHA   0.439     1 0.439    ns       Wilcox~
##  6 Actinobacte~ Abunda~ BAEA   SSHA   0.321     1 0.321    ns       Wilcox~
##  7 Actinobacte~ Abunda~ BWHA   COHA   1         1 1.000    ns       Wilcox~
##  8 Actinobacte~ Abunda~ BWHA   NOGO   0.329     1 0.329    ns       Wilcox~
##  9 Actinobacte~ Abunda~ BWHA   RSHA   1         1 1.000    ns       Wilcox~
## 10 Actinobacte~ Abunda~ BWHA   RTHA   0.599     1 0.599    ns       Wilcox~
## # ... with 11 more rows
## $Letters
## BAEA BWHA COHA NOGO RSHA RTHA SSHA 
##  "a"  "a"  "a"  "a"  "a"  "a"  "a" 
## 
## $LetterMatrix
##         a
## BAEA TRUE
## BWHA TRUE
## COHA TRUE
## NOGO TRUE
## RSHA TRUE
## RTHA TRUE
## SSHA TRUE
## 
## # A tibble: 21 x 9
##    Phylum      .y.      group1 group2     p p.adj p.format p.signif method 
##    <fct>       <chr>    <chr>  <chr>  <dbl> <dbl> <chr>    <chr>    <chr>  
##  1 Bacteroide~ Abundan~ BAEA   BWHA   0.729     1 0.729    ns       Wilcox~
##  2 Bacteroide~ Abundan~ BAEA   COHA   0.617     1 0.617    ns       Wilcox~
##  3 Bacteroide~ Abundan~ BAEA   NOGO   1         1 1.000    ns       Wilcox~
##  4 Bacteroide~ Abundan~ BAEA   RSHA   1         1 1.000    ns       Wilcox~
##  5 Bacteroide~ Abundan~ BAEA   RTHA   0.550     1 0.550    ns       Wilcox~
##  6 Bacteroide~ Abundan~ BAEA   SSHA   0.410     1 0.410    ns       Wilcox~
##  7 Bacteroide~ Abundan~ BWHA   COHA   0.928     1 0.928    ns       Wilcox~
##  8 Bacteroide~ Abundan~ BWHA   NOGO   1         1 1.000    ns       Wilcox~
##  9 Bacteroide~ Abundan~ BWHA   RSHA   0.534     1 0.534    ns       Wilcox~
## 10 Bacteroide~ Abundan~ BWHA   RTHA   1         1 1.000    ns       Wilcox~
## # ... with 11 more rows
## $Letters
## BAEA BWHA COHA NOGO RSHA RTHA SSHA 
##  "a"  "a"  "a"  "a"  "a"  "a"  "a" 
## 
## $LetterMatrix
##         a
## BAEA TRUE
## BWHA TRUE
…
## $Letters
## BAEA BWHA COHA NOGO RSHA RTHA SSHA 
##  "a"  "a"  "a"  "a"  "a"  "a"  "a" 
## 
## $LetterMatrix
##         a
## BAEA TRUE
## BWHA TRUE
## COHA TRUE
## NOGO TRUE
## RSHA TRUE
## RTHA TRUE
## SSHA TRUE
## 
## # A tibble: 21 x 9
##    Phylum     .y.      group1 group2      p p.adj p.format p.signif method 
##    <fct>      <chr>    <chr>  <chr>   <dbl> <dbl> <chr>    <chr>    <chr>  
##  1 Firmicutes Abundan~ BAEA   BWHA   0.242      1 0.242    ns       Wilcox~
##  2 Firmicutes Abundan~ BAEA   COHA   1          1 1.000    ns       Wilcox~
##  3 Firmicutes Abundan~ BAEA   NOGO   0.540      1 0.540    ns       Wilcox~
##  4 Firmicutes Abundan~ BAEA   RSHA   1          1 1.000    ns       Wilcox~
##  5 Firmicutes Abundan~ BAEA   RTHA   0.916      1 0.916    ns       Wilcox~
##  6 Firmicutes Abundan~ BAEA   SSHA   0.560      1 0.560    ns       Wilcox~
##  7 Firmicutes Abundan~ BWHA   COHA   0.143      1 0.143    ns       Wilcox~
##  8 Firmicutes Abundan~ BWHA   NOGO   0.434      1 0.434    ns       Wilcox~
##  9 Firmicutes Abundan~ BWHA   RSHA   0.558      1 0.558    ns       Wilcox~
## 10 Firmicutes Abundan~ BWHA   RTHA   0.0146     1 0.015    *        Wilcox~
## # ... with 11 more rows
## $Letters
## BAEA BWHA COHA NOGO RSHA RTHA SSHA 
##  "a"  "a"  "a"  "a"  "a"  "a"  "a" 
## 
## $LetterMatrix
##         a
## BAEA TRUE
## BWHA TRUE
…
## $Letters
## BAEA BWHA COHA NOGO RSHA RTHA SSHA 
##  "a"  "a"  "a"  "a"  "a"  "a"  "a" 
## 
## $LetterMatrix
##         a
## BAEA TRUE
## BWHA TRUE
## COHA TRUE
## NOGO TRUE
## RSHA TRUE
## RTHA TRUE
## SSHA TRUE
## 
## # A tibble: 21 x 9
##    Phylum      .y.     group1 group2      p p.adj p.format p.signif method 
##    <fct>       <chr>   <chr>  <chr>   <dbl> <dbl> <chr>    <chr>    <chr>  
##  1 Proteobact~ Abunda~ BAEA   BWHA   0.242      1 0.242    ns       Wilcox~
##  2 Proteobact~ Abunda~ BAEA   COHA   1          1 1.000    ns       Wilcox~
##  3 Proteobact~ Abunda~ BAEA   NOGO   0.540      1 0.540    ns       Wilcox~
##  4 Proteobact~ Abunda~ BAEA   RSHA   1          1 1.000    ns       Wilcox~
##  5 Proteobact~ Abunda~ BAEA   RTHA   0.836      1 0.836    ns       Wilcox~
##  6 Proteobact~ Abunda~ BAEA   SSHA   0.435      1 0.435    ns       Wilcox~
##  7 Proteobact~ Abunda~ BWHA   COHA   0.191      1 0.191    ns       Wilcox~
##  8 Proteobact~ Abunda~ BWHA   NOGO   1          1 1.000    ns       Wilcox~
##  9 Proteobact~ Abunda~ BWHA   RSHA   1          1 1.000    ns       Wilcox~
## 10 Proteobact~ Abunda~ BWHA   RTHA   0.0739     1 0.074    ns       Wilcox~
## # ... with 11 more rows
## $Letters
## BAEA BWHA COHA NOGO RSHA RTHA SSHA 
##  "a"  "a"  "a"  "a"  "a"  "a"  "a" 
## 
## $LetterMatrix
##         a
## BAEA TRUE
## BWHA TRUE
…
}

## # A tibble: 21 x 9
##    Family       .y.     group1 group2     p p.adj p.format p.signif method 
##    <fct>        <chr>   <chr>  <chr>  <dbl> <dbl> <chr>    <chr>    <chr>  
##  1 Burkholderi~ Abunda~ BAEA   BWHA   0.729     1 0.72903  ns       Wilcox~
##  2 Burkholderi~ Abunda~ BAEA   COHA   0.775     1 0.77510  ns       Wilcox~
##  3 Burkholderi~ Abunda~ BAEA   NOGO   0.540     1 0.54029  ns       Wilcox~
##  4 Burkholderi~ Abunda~ BAEA   RSHA   1         1 1.00000  ns       Wilcox~
##  5 Burkholderi~ Abunda~ BAEA   RTHA   0.759     1 0.75893  ns       Wilcox~
##  6 Burkholderi~ Abunda~ BAEA   SSHA   0.525     1 0.52452  ns       Wilcox~
##  7 Burkholderi~ Abunda~ BWHA   COHA   0.499     1 0.49883  ns       Wilcox~
##  8 Burkholderi~ Abunda~ BWHA   NOGO   0.841     1 0.84073  ns       Wilcox~
##  9 Burkholderi~ Abunda~ BWHA   RSHA   1         1 1.00000  ns       Wilcox~
## 10 Burkholderi~ Abunda~ BWHA   RTHA   0.269     1 0.26918  ns       Wilcox~
## # ... with 11 more rows
## $Letters
## BAEA BWHA COHA NOGO RSHA RTHA SSHA 
##  "a"  "a"  "a"  "a"  "a"  "a"  "a" 
## 
## $LetterMatrix
##         a
## BAEA TRUE
## BWHA TRUE
## COHA TRUE
## NOGO TRUE
## RSHA TRUE
## RTHA TRUE
## SSHA TRUE
## 
## # A tibble: 21 x 9
##    Family       .y.     group1 group2     p p.adj p.format p.signif method 
##    <fct>        <chr>   <chr>  <chr>  <dbl> <dbl> <chr>    <chr>    <chr>  
##  1 Enterobacte~ Abunda~ BAEA   BWHA   0.242  1    0.24157  ns       Wilcox~
##  2 Enterobacte~ Abunda~ BAEA   COHA   0.383  1    0.38273  ns       Wilcox~
##  3 Enterobacte~ Abunda~ BAEA   NOGO   0.540  1    0.54029  ns       Wilcox~
##  4 Enterobacte~ Abunda~ BAEA   RSHA   1      1    1.00000  ns       Wilcox~
##  5 Enterobacte~ Abunda~ BAEA   RTHA   0.918  1    0.91841  ns       Wilcox~
##  6 Enterobacte~ Abunda~ BAEA   SSHA   0.333  1    0.33292  ns       Wilcox~
##  7 Enterobacte~ Abunda~ BWHA   COHA   0.516  1    0.51595  ns       Wilcox~
##  8 Enterobacte~ Abunda~ BWHA   NOGO   0.846  1    0.84645  ns       Wilcox~
##  9 Enterobacte~ Abunda~ BWHA   RSHA   1      1    1.00000  ns       Wilcox~
## 10 Enterobacte~ Abunda~ BWHA   RTHA   0.107  0.82 0.10668  ns       Wilcox~
## # ... with 11 more rows
## $Letters
## BAEA BWHA COHA NOGO RSHA RTHA SSHA 
##  "a"  "a"  "a"  "a"  "a"  "a"  "a" 
## 
## $LetterMatrix
##         a
## BAEA TRUE
## BWHA TRUE
…
